Introduction to College Football Analytics with cfbscrapR • cfbscrapR
…
Ok, now let’s play with the tidyverse a little more. We’ve used filter(), which is an extremely useful function. The next most useful functions actually do things to the data: group_by(), and summarise().

Summarise is the way of creating season-long or game-by-game stats. Let’s start with some season long raw offense numbers, yards per attempt (passing) and yards per rush. We’re going to use the pipe (%>%) to tell R to grab our plays dataset, group it by offense team, and summarize their yards per attempt and yards per rush in a new object called offense.

To create a conditional mean, like “the mean of yards_gained when pass == 1”, all you’ll do is add the condition you want in brackets inside your mean() function.

offense <- plays %>% group_by(offense_play) %>% 
summarise(ypa = mean(yards_gained[pass==1]),
          ypr = mean(yards_gained[rush==1]))

Now we can ask and answer some fun questions. Who had the best rushing offense, on a per play basis? Who had the best passing offense, on a per-play basis? We will do this using the arrange(desc()) function, which tells R to order the data from greatest to least (descending).

offense %>% arrange(desc(ypr))

## # A tibble: 130 x 3
##    offense_play        ypa   ypr
##    <chr>             <dbl> <dbl>
##  1 Oklahoma           9.18  6.56
##  2 Kentucky           4.63  6.55
##  3 Clemson            8.13  6.50
##  4 Western Michigan   6.54  6.42
##  5 Louisiana          7.11  6.41
##  6 Ohio State         8.28  6.37
##  7 Navy               9.06  6.37
##  8 Oklahoma State     6.51  6.25
##  9 Mississippi State  5.79  6.05
## 10 Ole Miss           6.20  6.01
## # ... with 120 more rows

offense %>% arrange(ypa)

## # A tibble: 130 x 3
##    offense_play       ypa   ypr
##    <chr>            <dbl> <dbl>
##  1 Northwestern      3.63  4.79
##  2 Akron             3.87  3.39
##  3 Duke              3.93  4.11
##  4 Maryland          3.97  5.83
##  5 UMass             3.97  4.29
##  6 Old Dominion      4.03  4.14
##  7 Bowling Green     4.22  4.17
##  8 New Mexico State  4.28  5.43
##  9 Georgia Tech      4.28  5.13
## 10 Vanderbilt        4.40  4.89
## # ... with 120 more rows
…
